testblog - Hate Speech auf Twitter
…
baked <- rec1 %>% 
  prep() %>% 
  bake(new_data = NULL)
baked

# A tibble: 4,474 × 10
      id class      insult senti lda_tweet_1 lda_tweet_2 lda_tweet_3 lda_tweet_4
   <dbl> <fct>       <int> <dbl>       <dbl>       <dbl>       <dbl>       <dbl>
 1    85 hate spee…      1 -0.25       0            0           0            0  
 2    90 hate spee…      1  1          0.1          0.3         0            0.6
 3   186 hate spee…      1 -1          0.433        0.4         0            0.1
 4   204 hate spee…      1 -0.75       0            0           0.3          0.2
 5   206 hate spee…      2 -0.75       0            0.3         0.5          0  
 6   221 hate spee…      0  1.4        0            0           0            0.2
 7   263 hate spee…      1 -1.75       0            0           0.1          0.4
 8   317 hate spee…      1 -0.55       0            0           0.5          0  
 9   320 hate spee…      0 -0.35       0.1          0.1         0            0.2
10   354 hate spee…      1 -0.75       0.25         0.15        0.05         0.5
# ℹ 4,464 more rows
# ℹ 2 more variables: lda_tweet_5 <dbl>, lda_tweet_6 <dbl>

baked2 <- rec2 %>% 
  prep() %>% 
  bake(new_data = NULL)
baked2

# A tibble: 4,474 × 44
      id class     insult senti tfidf_tweet_amp tfidf_tweet_ass tfidf_tweet_back
   <dbl> <fct>      <int> <dbl>           <dbl>           <dbl>            <dbl>
 1    85 hate spe…      1 -0.25               0               0                0
 2    90 hate spe…      1  1                  0               0                0
 3   186 hate spe…      1 -1                  0               0                0
 4   204 hate spe…      1 -0.75               0               0                0
 5   206 hate spe…      2 -0.75               0               0                0
 6   221 hate spe…      0  1.4                0               0                0
 7   263 hate spe…      1 -1.75               0               0                0
 8   317 hate spe…      1 -0.55               0               0                0
 9   320 hate spe…      0 -0.35               0               0                0
10   354 hate spe…      1 -0.75               0               0                0
# ℹ 4,464 more rows
# ℹ 37 more variables: tfidf_tweet_bird <dbl>, tfidf_tweet_birds <dbl>,
#   tfidf_tweet_bitch <dbl>, tfidf_tweet_can <dbl>, tfidf_tweet_charlie <dbl>,
#   tfidf_tweet_colored <dbl>, tfidf_tweet_day <dbl>, tfidf_tweet_faggot <dbl>,
#   tfidf_tweet_fuck <dbl>, tfidf_tweet_get <dbl>, tfidf_tweet_ghetto <dbl>,
#   tfidf_tweet_go <dbl>, tfidf_tweet_good <dbl>, tfidf_tweet_got <dbl>,
#   tfidf_tweet_hate <dbl>, tfidf_tweet_just <dbl>, tfidf_tweet_know <dbl>, …
…
model_set %>% 
  collect_metrics() %>% 
  arrange(-mean)

# A tibble: 28 × 9
   wflow_id .config         preproc model .metric .estimator  mean     n std_err
   <chr>    <chr>           <chr>   <chr> <chr>   <chr>      <dbl> <int>   <dbl>
 1 rec2_xgb Preprocessor1_… recipe  boos… roc_auc binary     0.904     2 0.00857
 2 rec2_xgb Preprocessor1_… recipe  boos… roc_auc binary     0.881     2 0.0115 
 3 rec2_xgb Preprocessor1_… recipe  boos… accura… binary     0.880     2 0.00246
 4 rec2_xgb Preprocessor1_… recipe  boos… roc_auc binary     0.868     2 0.0196 
 5 rec2_xgb Preprocessor1_… recipe  boos… accura… binary     0.866     2 0.00112
 6 rec2_xgb Preprocessor1_… recipe  boos… accura… binary     0.855     2 0.00983
 7 rec2_xgb Preprocessor1_… recipe  boos… roc_auc binary     0.854     2 0.0115 
 8 rec2_xgb Preprocessor1_… recipe  boos… roc_auc binary     0.853     2 0.0140 
 9 rec2_xgb Preprocessor1_… recipe  boos… roc_auc binary     0.852     2 0.0167 
10 rec2_xgb Preprocessor1_… recipe  boos… accura… binary     0.848     2 0.00201
# ℹ 18 more rows
…
Die Performance im Train-Sample fällt sehr gut aus, da die Vorhersagen mit einer Genauigkeit von rund 90 Prozent sehr präzise sind.

Vorhersagen

preds <- predict(fit_final, d_test)
preds

# A tibble: 1,119 × 1
   .pred_class
   <fct>      
 1 other      
 2 other      
 3 hate speech
 4 other      
 5 hate speech
 6 other      
 7 other      
 8 other      
 9 other      
10 other      
# ℹ 1,109 more rows

Bestimmen der Vorhersagegüte im Test-Sample

d_test1 <-
  d_test %>%  
   bind_cols(preds) %>% 
  mutate(class = as.factor(class))
d_test1

# A tibble: 1,119 × 4
      id tweet                                                 class .pred_class
   <dbl> <chr>                                                 <fct> <fct>      
 1    66 "\"@AllAboutManFeet:  woof woof and hot soles"        other other      
 2    70 "\"@ArizonasFinest: Why the eggplant emoji doe?\"y h… other other      
 3   111 "\"@DevilGrimz: @VigxRArts you're fucking gay, black… hate… hate speech
 4   116 "\"@DomWorldPeace: Baseball season for the win. #Yan… other other      
 5   151 "\"@JReebo: Who wants to get there nose in these bad… other hate speech
 6   192 "\"@Mesha_nojas: @_Vontethekidd &#;&#;&#;&#;&#;\" I … other other      
 7   245 "\"@Stephenwildboy: Chilling &#;&#;  sexy scally lad" other other      
 8   251 "\"@TEE_JONEZ: @KingCuh @stanleys I'm not mad cuh ha… other other      
 9   318 "\"@ayyee_ceee_: One mans trash &#; is another mans … other other      
10   341 "\"@hxhassan: Jihadi patron Hajjaj al-Ajmi is arrest… other other      
# ℹ 1,109 more rows
…
